 {
	"Configuration": 
	{
		"cameraPosition": [0,2,5],
		"cameraLookat": [0,0,0],
		"timeStepSize": 0.001,
		"numberOfStepsPerRenderUpdate": 2,
		"particleRadius": 0.03, 
		"density0": 1000, 
		"simulationMethod": 4,
		"gravitation": [0,-9.81,0], 
		"cflMethod": 2, 
		"cflFactor": 0.5,
		"cflMaxTimeStepSize": 0.005,
		"maxIterations": 100,
		"maxError": 0.05,
		"maxIterationsV": 100,
		"maxErrorV": 0.1,		
		"stiffness": 50000,
		"exponent": 7,
		"velocityUpdateMethod": 0,
		"particleAttributes": "velocity;temperature",
		"enableDivergenceSolver": true,
		"boundaryHandlingMethod": 0
	},
	"Materials": [
		{
			"id": "Fluid",
			"maxEmitterParticles": 600000,
			"emitterReuseParticles": false,
			"emitterBoxMin": [-2.0,-2.5,-2.0],
			"emitterBoxMax": [1.0,4,2.0],
			"viscosityMethod": 1,
			"viscosity": 0.01,
			"dragMethod": 0, 
			"colorMapType": 1
		}
	],
	"RigidBodies": [
		{
			"geometryFile": "../models/UnitBox.obj",
			"translation": [0,1,0],
			"rotationAxis": [1, 0, 0],
			"rotationAngle": 0,
			"scale": [4.0, 8.0, 4.0],
			"color": [0.1, 0.4, 0.6, 1.0], 
			"isDynamic": false,
			"isWall": true,
			"mapInvert": true, 
			"mapThickness": 0.0,
			"mapResolution": [30,25,20]
		}
	], 
	"Emitters": [
		{
			"width": 7, 
			"height": 7, 
			"translation": [0.0,0.25,0.0],
			"rotationAxis": [0, 0, 1],
			"rotationAngle": 1.5708,
			"velocity": 2,
			"type": 1,
			"emitEndTime": 3
		}
	]
}



